﻿{"urls":[
{"name":"🐯精简👙","url":"https://agit.ai/ddx/TVBox/raw/branch/master/t4.json"},
 {"name":"🐯跑马👙","url":"https://agit.ai/ddx/TVBox/raw/branch/master/m.json"},
{"name":"🐼肥猫👙","url":"http://我不是.肥猫.love:63/接口禁止贩卖"},
{"name":"未知源👙","url":"https://wds.ecsxs.com/230989.json"},
{"url": "https://agit.ai/30215429/TVBox/raw/branch/master/sft.txt","name": "⚜️爽翻天主线路"},
{"url": "http://itvbox.cc/sft/sft.m3u8","name": "⚜️爽翻天备用线路"},
{"url": "http://itvbox.cc/tvbox/云星日记/1.m3u8","name": "⚜️云星家庭线路"},
{"url": "http://我不是.肥猫.love:63/接口禁止贩卖","name": "⚜️肥猫Panda线路"},
{"url": "http://饭太硬.top/tv","name": "⚜️饭太硬线路"},                
{"url": "http://xhww.fun:63/小米/DEMO.json","name": "⚜️小米线路"},
{"url": "http://刚刚.live/猫","name": "⚜️刚刚线路"},
{"url":"https://ghproxy.net/https://raw.githubusercontent.com//yydfys/yydf/main/XYQTVBox/xyq.json","name": "⚜️香雅情1线路"}, 
{"url": "https://jihulab.com/oAI/D/-/raw/master/XYQ.json","name": "⚜️香雅晴2线路"},                 
{"url": "https://tvbox.cainisi.cf","name": "⚜️菜尼丝线路"},                      
{"url": "https://agit.ai/Yoursmile7/TVBox/raw/branch/master/XC.json","name": "⚜️南风线路"},   
{"url": "https://神器每日推送.tk/pz.json","name": "⚜️神器线路"},       
{"url": "http://52bsj.vip:98/wuai","name": "⚜️吾爱1线路"},   
{"url": "http://suo.im/9iyzB","name": "⚜️吾爱2线路"},
{"url": "http://yydsys.top/duo","name": "⚜️多多家庭线路"},
{"url":"http://52bsj.vip:81/api/v3/file/get/29899/box2.json?sign=3cVyKZQr3lFAwdB3HK-A7h33e0MnmG6lLB9oWlvSNnM%3D%3A0","name": "⚜️月光线路1"},
{"url":"http://52bsj.vip:98/cl","name":"⚜️月光线路2"},
{"url":"http://home.jundie.top:81/top98.json","name":"⚜️俊宇线路"},
{"url":"http://369936.xyz/web119","name":"⚜️春风影视线路"},
{"url":"https://ghproxy.com/raw.githubusercontent.com/FongMi/CatVodSpider/main/json/config.json","name": "⚜️蜂蜜线路"},
{"url": "https://raw.liucn.cc/box/m.json","name": "⚜️老刘备线路"},
{"url": "https://s2.pub/cally","name": "⚜️cally线路"},
{"url": "https://agit.ai/66666/mao/raw/branch/master/00/000.m3u8","name":"⚜️分享者1线路"},
{"url": "https://agit.ai/n/b/raw/branch/a/b/c.json","name":"⚜️分享者2线路"},
{"url": "https://notabug.org/qizhen15800/My9394/raw/master/ProfessionalEdition.m3u8","name": "⚜️不良帅线路"},
{"url": "https://agit.ai/mmmgit/tvbox/raw/branch/main/zzz1.json","name": "⚜️叁Z线路"},
{"url": "http://home.jundie.top:81/TVBox/yosakoi.json","name": "⚜️军碟线路"},
{"url": "https://dybz.store/dybz","name": "⚜️大眼仔线路"},
{"url":"https://ghproxy.net/https://raw.githubusercontent.com/tuji-2015/miao/main/TVBox/tvbox.json","name":"⚜️喵影视线路"},
{"url":"http://pandown.pro/tvbox/tvbox.json","name":"⚜️雨滴线路"},
{"url":"http://lltv8.top/","name":"⚜️猎狼线路"},
{"url":"https://agit.ai/lcx/11/raw/branch/master/12","name":"⚜️刘慈欣线路"},
{"url": "http://ysc.weixine.net:33/","name": "⚜️运输车线路"},
{"url": "http://8.210.232.168/xc.json","name": "⚜️玉玉线路"},
{"url": "https://raw.gitmirror.com/yydfys/yydf/main/yydf/yydf.json","name": "⚜️业余线路"},
{"url": "https://pan.shangui.cc/f/4LBAF0/ali.json","name": "⚜️业余阿里线路"},
{"url": "https://pan.shangui.cc/f/mPecb/%E9%87%87%E9%9B%86.json","name": "⚜️业余采集线路"},
{"url":"https://pan.shangui.cc/f/8VDbIo/%E5%B0%91%E5%84%BF%E9%A2%91%E9%81%93.json","name": "⚜️业余少儿线路"},
{"url": "http://rihou.cc:99/荷城茶秀","name": "⚜️荷城茶秀线路"},
{"url": "https://agit.ai/relax/adcc/raw/branch/master/tvbox.json","name": "⚜️巧技线路"},
{"url": "http://124.220.63.232/关注码上放生/时光机","name": "⚜️时光机线路"},
{"url": "http://tv.nxog.top/m/111.php?ou=公众号欧歌app&mz=index2&jar=index2&123&b=欧歌","name": "⚜️讴歌家庭线路"},
{"url": "http://tv.nxog.top/m/111.php?ou=公众号欧歌app&mz=a3&jar=a3&b=欧歌","name": "⚜️讴歌学习线路"},
{"url": "https://pastebin.com/raw/5NHaxyGR","name": "⚜️道长1线路"},
{"url": "https://raw.gitmirror.com/yw88075/tvbox/main/dr/js.json","name": "⚜️道长2线路"},
{"url": "http://rihou.vip:61/天天开心","name": "⚜️日后线路"},
{"url": "https://download.kstore.space/download/2883/1022tv.json","name": "⚜️魔改源线路"},
{"url": "https://download.kstore.space/download/2863/01.txt","name":"⚜️潇洒线路"},
{"url": "https://www.lianyingtv.com/fast/fast","name": "⚜️恋影线路"},
{"url": "http://rihou.vip:666/心动","name": "⚜️心动线路"},
{"url":"http://tv.nxog.top/m/111.php?ou=%E6%AC%A7%E6%AD%8C&mz=index2&xl=&jar=index2","name": "⚜️星河科技线路"},
{"url": "http://tv.nxog.top/m/111.php?ou=%E6%AC%A7%E6%AD%8C&mz=a3&jar=a3&b=白嫖小蚂蚁","name": "⚜️蚂蚁哔哩线路"},
{"url":"http://1.nxog.top/m/111.php?ou=%E6%AC%A7%E6%AD%8C&mz=index2&jar=index2&123&b=白嫖小蚂蚁","name": "⚜️蚂蚁家庭线路"},
{"url": "http://tv.nxog.top/m/111.php?ou=%E6%AC%A7%E6%AD%8C&mz=all&jar=all&b=白嫖小蚂蚁","name": "⚜️蚂蚁阿里线路"},
{"url": "http://tv.nxog.top/m/111.php?ou=%E6%AC%A7%E6%AD%8C&mz=py&jar=py&b=白嫖小蚂蚁","name": "⚜️蚂蚁py线路"},
{"url":"http://tv.nxog.top/m/111.php?ou=%E6%AC%A7%E6%AD%8C&mz=index2&jar=index2&321&b=白嫖小蚂蚁","name": "⚜️蚂蚁推荐线路"},
{"url": "http://jxym.ygx888.com/vip/api.json","name": "⚜️星视界线路"},
{"url": "https://agit.ai/376242575/zzh/raw/branch/master/txt/影视.txt ","name": "⚜️人人影视线路"},
{"url": "http://9xi4o.tk/0725.json","name": "⚜️4K云盘线路"},
{"url": "https://hutool.ml/tang","name": "⚜️唐三线路"},
{"url":"https://gh-proxy.com/https://raw.githubusercontent.com/wnddwc/daiweichun/main/waynfifdwj.json","name": "⚜️民间大佬线路"},
{"url": "http://cdn.qiaoji8.com/tvbox.json","name": "⚜️爱音乐线路"},
{"url": "https://jihulab.com/zhulr7765/tvbox/-/raw/main/tv.txt?ref_type=heads","name": "⚜️视频资源线路"},
{"url": "https://jihulab.com/clear1/yingmi/-/raw/main/xh.txt","name": "⚜️影迷蓝光线路"},
{"url": "https://agit.ai/kvymin/TV/raw/branch/master/Box.json","name": "⚜️Box线路线路"},
{"url": "https://jihulab.com/yw88075/tvbox/-/raw/main/dr/js.json","name": "⚜️心魔js线路"},
{"url": "https://agit.ai/Jonwall/Box/raw/branch/a/T20.json","name": "⚜️胡二刀线路"},
{"url": "https://codeberg.org/jgfx/box88/raw/branch/master/jg.txt","name": "⚜️JG精选线路"},
{"url": "https://dxawi.github.io/0/0.json","name": "⚜️零线路线路"},
{"url": "https://agit.ai/hu/hcr/raw/branch/master/py3.txt","name": "⚜️未知线路1"},
{"url": "https://out.zxglife.top/down.php/5da920895444ba485dde96b5425b8a67.txt","name": "⚜️未知线路2"},
{"url":"https://ghproxy.com/https://raw.githubusercontent.com/liu673cn/box/main/m.json","name": "⚜️未知线路3"},
{"url": "https://agit.ai/xx03253/xxu/raw/branch/main/xxtv.json","name": "⚜️未知线路4"},
{"url":"http://52bsj.vip:81/api/v3/file/get/41063/bili.json?sign=TxuApYZt6bNl9TzI7vObItW34UnATQ4RQxABAEwHst4%3D%3A0 ","name": "⚜️哔哩娱乐线路"},
{"url":"https://agit.ai/376242575/zzh/raw/branch/master/txt/%e6%95%99%e8%82%b2%ef%b9%a0%e6%95%99%e7%a8%8b.txt ","name": "⚜️儿童学习线路"},
{"name": "☪️民间大佬线路","url": "https://gh-proxy.com/https://raw.githubusercontent.com/wnddwc/daiweichun/main/waynfifdwj.json"},
{"name": "☪️爱音乐线路","url": "http://cdn.qiaoji8.com/tvbox.json"},
{"name": "☪️视频资源线路","url": "https://jihulab.com/zhulr7765/tvbox/-/raw/main/tv.txt?ref_type=heads"},
{"name": "☪️蓝光线路线路","url": "https://jihulab.com/clear1/yingmi/-/raw/main/xh.txt"},
{"name": "☪️Box线路线路","url": "https://agit.ai/kvymin/TV/raw/branch/master/Box.json"},
{"name": "☪️心魔js线路","url": "https://jihulab.com/yw88075/tvbox/-/raw/main/dr/js.json"},
{"name": "☪️胡二刀线路","url": "https://agit.ai/Jonwall/Box/raw/branch/a/T20.json"},
{"name": "☪️JG精选线路","url": "https://codeberg.org/jgfx/box88/raw/branch/master/jg.txt"},
{"name": "☪️零线路线路","url": "https://dxawi.github.io/0/0.json"},
{"name": "☪️未知线路","url": "https://agit.ai/hu/hcr/raw/branch/master/py3.txt"},
{"name": "☪️哔哩娱乐线路","url": "http://52bsj.vip:81/api/v3/file/get/41063/bili.json?sign=TxuApYZt6bNl9TzI7vObItW34UnATQ4RQxABAEwHst4%3D%3A0 "},

{"name": "☪️日后线路","url": "http://rihou.vip:61/天天开心"},
{"name": "☪️魔改源线路","url": "https://download.kstore.space/download/2883/1022tv.json"},
{"name": "☪️恋影线路","url": "https://www.lianyingtv.com/fast/fast"},
{"name": "☪️心动线路","url": "http://rihou.vip:666/心动"},
{"name": "星河科技线路","url": "http://tv.nxog.top/m/111.php?ou=%E6%AC%A7%E6%AD%8C&mz=index2&xl=&jar=index2"},
{"name": "☪️蚂蚁哔哩线路","url": "http://tv.nxog.top/m/111.php?ou=%E6%AC%A7%E6%AD%8C&mz=a3&jar=a3&b=白嫖小蚂蚁"},
{"name": "☪️蚂蚁家庭线路","url": "http://1.nxog.top/m/111.php?ou=%E6%AC%A7%E6%AD%8C&mz=index2&jar=index2&123&b=白嫖小蚂蚁"},
{"name": "☪️蚂蚁阿里线路","url": "http://tv.nxog.top/m/111.php?ou=%E6%AC%A7%E6%AD%8C&mz=all&jar=all&b=白嫖小蚂蚁"},
{"name": "☪️蚂蚁py线路","url": "http://tv.nxog.top/m/111.php?ou=%E6%AC%A7%E6%AD%8C&mz=py&jar=py&b=白嫖小蚂蚁"},
{"name": "☪️蚂蚁推荐线路","url": "http://tv.nxog.top/m/111.php?ou=%E6%AC%A7%E6%AD%8C&mz=index2&jar=index2&321&b=白嫖小蚂蚁"},
{"url": "http://9xi4o.tk/0725.json","name": "☪️4K云盘线路"},
{"url": "https://hutool.ml/tang","name": "☪️唐三线路"},

{ "url": "https://agit.ai/30215429/TVBox/raw/branch/master/sft.txt","name": "☪️爽翻天主线路" },
{"name": "☃️讴歌学习","url": "http://tv.nxog.top/m/111.php?ou=公众号欧歌app&mz=a3&jar=a3&b=欧歌"}, 
 {"name": "🌹公众号-恒星资料网","url": "https://codeberg.org/hengxing/hx/raw/branch/main/zxxl.txt"},
{"name": "🚖夜猫子新","url": "https://download.kstore.space/download/3313/app/ymzn"},
{"name": "💕全部4k资源","url": "https://codeberg.org/hengxing/hx/raw/branch/main/qb4k.txt"},
{"name": "💗时光机","url": "https://ghproxy.com/https://raw.githubusercontent.com/xmbjm/xmbjm/main/xmbjm.json"},
{"name": "💗锦哥","url": "http://jin.锦哥哥.love"},
{"name": "🐈影音天堂4k","url": "https://jihulab.com/dimaston1/4k/-/raw/main/tongyong.json"},
{"name": "👍肥猫4k","url": "http://我不是.肥猫.love:63/接口禁止贩卖"},
{"name": "🚡阿里精品","url": "http://yydsys.top/duo/ali"},
{"name": "🚖影探4k","url": "http://www.lyyytv.cn/yt/yt.json"},
{"name": "💗4k","url": "https://ghproxy.com/https://raw.githubusercontent.com/pdscxz/TV/main/video/tv4k.json"},
{"name": "😍短剧大全","url": "http://wp.anxwl.cn/view.php/16789475e9f1d205409131129d2b1162.jpg"},
{"name": "✍️阿里专线","url": "https://yydsys.top/duo/ali"},
{"name": "💔温酒待侯","url": "https://download.kstore.space/download/4907/jcsq/fx.json"},
{"name": "🧡业余主线","url": "http://111.67.195.139/yydf/yyff.json"},
{"name": "💙群新荟萃","url": "https://ghproxy.net/https://raw.githubusercontent.com/yydfys/yydf/main/yydf/yydf.json"},
{"name": "👅非凡","url": "https://codeberg.org/jgfx/dym/raw/branch/master/master825.json"},
{"name": "🉑跑得快","url": "https://weixine.net/ysc.json"},
{"name": "🎾小米","url": "http://xhww.fun:63/小米/DEMO.json"},
{"name": "🌵小盒酷玩","url": "http://小盒酷玩.fun:66/禁止贩卖"},
{"name": "🍓魔改线路","url": "https://download.kstore.space/download/2883/%E5%BD%B1%E8%A7%86%E4%BB%93.txt"},
{ "name": "🏵️77影视","url": "http://tvboxx.com.cn/tvbox/tv.json"},
{"name": "⚽金榜影视","url": "https://wds.ecsxs.com:443/230989.json"},
{"name": "🌺泥巴","url": "https://ghproxy.com/raw.githubusercontent.com/gaotianliuyun/gao/master/0827.json"},
{ "name": "🌺香雅情","url": "https://raw.gitmirror.com/yw88075/tvbox/main/XYQTVBox/XYQTVBox.json"},
{"name": "🌼圈圈","url": "https://ghproxy.com/https://raw.githubusercontent.com/PizazzGY/TVBox/main/api2.json"},
{"name": "☃️蚂蚁接口","url": "https://ghproxy.com/raw.githubusercontent.com/gaotianliuyun/gao/master/js.json"},
{"name": "🏆荷城茶秀","url": "https://agit.ai/XiaoYiChaHang/xxzb/raw/branch/master/hccx.json"},
{"name": "💛心动","url": "https://jihulab.com/yw88075/tvbox/-/raw/main/yw.json"},
{"name": "🥝蜂蜜","url": "https://ghproxy.com/https://raw.githubusercontent.com/PizazzGY/TVBox_warehouse/main/影视/api.json"},
{"name": "💞多多","url": "https://yydsys.top/duo"},
{"name": "🍚饭太硬","url": "http://饭太硬.top/tv"},
{"name": "🚒运输车","url": "https://pan.shangui.cc/f/mPecb/%E9%87%87%E9%9B%86.json"},
{"name": "🐼肥猫","url": "http://我不是.肥猫.love:63/接口禁止贩卖"},
{"name": "🌨高天流云JS","url": "https://ghproxy.com/raw.githubusercontent.com/gaotianliuyun/gao/master/js.json"},
{"name": "💦4k给力","url": "http://xxxoo.shop"},

{"name": "🛵公众号-恒星资料网","url": "http://tv.nxog.top/m/111.php?ou=%E6%AC%A7%E6%AD%8C&mz=index2&xl=&jar=index2"},
{"name": "🎈民间大佬","url": "https://gh-proxy.com/https://raw.githubusercontent.com/wnddwc/daiweichun/main/waynfifdwj.json"},
{"name": "🛵爱音乐","url": "http://cdn.qiaoji8.com/tvbox.json"},
{"name": "🉑资源","url": "https://jihulab.com/zhulr7765/tvbox/-/raw/main/tv.txt?ref_type=heads"},
{"name": "🉑玉玉","url": "http://8.210.232.168/xc.json"},
{"name": "🐼蚂蚁哔哩 ","url": "http://tv.nxog.top/m/111.php?ou=%E6%AC%A7%E6%AD%8C&mz=a3&jar=a3&b=白嫖小蚂蚁"},
{"name": "👁️蓝光","url": "https://jihulab.com/clear1/yingmi/-/raw/main/xh.txt"},
{"name": "✍️时光机","url": "http://124.220.63.232/关注码上放生/时光机"},

{"name":"🌹小米👙","url":"http://xhww.fun:63/小米/DEMO.json"},

{"name":"🌼夜魔👙","url":"https://download.kstore.space/download/3313/mao/ymz"},
{"name":"☃️蚂蚁👙","url":"https://ghproxy.com/raw.githubusercontent.com/gaotianliuyun/gao/master/js.json"},
{"name":"🏆荷城👙","url":"https://raw.iqiq.io/XiaoYiChaHang/tvbox/main/ysj.json"},
{"name":"💛唐三👙","url":"https://gh.t4tv.hz.cz/newtang.bmp"},
{"name":"💞多多👙","url":"https://yydsys.top/duo"},
{"name":"🍚太硬👙","url":"http://饭太硬.top/tv"},
{"name":"🚒运输👙","url":"https://cf.weixine.net/ysc.json"},

{"name":"🌙胖鸭👙","url":"https://agit.ai/cyl518/yl/raw/branch/master/ml.json"},
{"name":"🌒霜晖👙","url":"https://raw.iqiq.io/lm317379829/PyramidStore/pyramid/py.json"},
{"name":"🌃月光👙JS","url":"https://jihulab.com/ygbh1/box/-/raw/main/JS/js.json"},
{"name":"🌨高天👙JS","url":"https://ghproxy.com/raw.githubusercontent.com/gaotianliuyun/gao/master/js.json"},
{"name":"🖥不好打开运输👙","url":"https://weixine.net/ysc.json"},
{"name":"💝恋影👙","url":"https://www.lianyingtv.com/fast/fast"},
{"name":"🌿刺桐👙","url":"https://gitee.com/ghzyw/cttv/raw/cttv-iptv/json/cttv2.json"},
{"name": "熊猫不叫猫🐼","url": "https://ghproxy.com/https://raw.githubusercontent.com/xmbjm/shiguang/main/shiguangdx.json"},
 {"name": "🦋拾光趣乐屋", "url": "https://raw.gitmirror.com/xmbjm/shiguang/main/shiguangdx.json"},
    
{"name": "🦋荷城茶秀备用","url": "https://agit.ai/XiaoYiChaHang/xxzb/raw/branch/master/hccx.json"},
{ "name": "🐝多多","url": "http://yydsys.top/duo"},
{"name": "🐴多多阿里","url": "http://yydsys.top/duo/ali"},
{"name": "🦎饭太硬","url": "http://饭太硬.top/tv"},
{"name": "🦀小米暴脾气","url": "http://xhww.fun:63/小米/DEMO.json"},
{"name": "🦋肥猫","url": "http://我不是.肥猫.love:63/接口禁止贩卖"},
{"name": "🦀肥猫通用线","url": "http://刚刚.live/猫"},
{"name": "🐡肥猫影视专用线","url": "http://肥猫.love"},
{ "name": "🦀道长","url": "https://raw.gitmirror.com/yw88075/tvbox/main/dr/js.json"},
{"name": "🐍月光宝盒","url": "https://jihulab.com/ygbh1/box/-/raw/main/月光宝盒"},
{"name": "🐗月光宝盒影视","url": "https://jihulab.com/ygbh1/box/-/raw/main/ys.json"},
{"name": "🐬月光宝盒JS","url": "https://jihulab.com/ygbh1/box/-/raw/main/JS/js.json"},
{"name": "🐍高天流云JS","url": "https://ghproxy.com/raw.githubusercontent.com/gaotianliuyun/gao/master/js.json"},
{"name": "🐬影视仓","url": "https://weixine.net/ysc.json"},
{"name": "🦑码上放生","url": "https://www.bestpvp.site/关注码上放生/时光机"},
{"name": "🦕饭佬备份","url": "http://fan.xxooo.cf/tv"},
{"name": "🐟菜妮丝","url": "https://tvbox.cainisi.cf"},
{ "name": "🎄俊宇","url": "http://home.jundie.top:81/top98.json"},
{ "name": "🐿吾爱","url": "http://52bsj.vip:98/wuai"},
{ "name": "🐲巧技","url": "http://pandown.pro/tvbox/tvbox.json"},
{ "name": "🦔欧歌","url": "http://tv.nxog.top/m/111.php?ou=%E6%AC%A7%E6%AD%8C&xl=4"},
{ "name": "🐑运输车","url": "http://weixine.link:33/"},
{"name": "🐁魔饭","url": "https://pastebin.com/raw/5NHaxyGR"},
{"name": "🧛♀️夜猫子少儿","url": "https://download.kstore.space/download/3313/app/ymshaoer.txt"},
{ "name": "👯高天流水","url": "https://ghproxy.com/https://raw.githubusercontent.com/gaotianliuyun/gao/master/js.json"},
{"name": "👨👩👧👦影音天堂","url": "https://jihulab.com/dimaston1/4k/-/raw/main/tongyong.json"},
{"name": "🧤南风","url": "https://agit.ai/Yoursmile7/TVBox/raw/branch/master/XC.json"},
{"name": "👜心魔","url": "https://jihulab.com/yw88075/tvbox/-/raw/main/dr/js.json"},
{"name": "🐶二哈","url": "https://codeberg.org/jgfx/2hacc/raw/branch/main/tvbox.json"},
{"name": "🦊云星","url": "http://itvbox.cc/tvbox/云星日记/1.m3u8"},
{ "name": "🐙阿里采集","url": "https://ghproxy.net/https://raw.githubusercontent.com/yydfys/yydf/main/阿里/ali.json"},
{"name": "🙉4K视界","url": "https://tudouaa1.oss-cn-beijing.aliyuncs.com/api/api.json"},
{"name": "🐺分享者","url": "https://agit.ai/66666/mao/raw/branch/master/00/000.m3u8"},
{"name": "🦆ABC","url": "https://agit.ai/n/b/raw/branch/a/b/c.json"},
{"name": "🐌神仙心动提供","url": "https://jihulab.com/shenxianyingshi/sxys/-/raw/main/sx.json"},
{ "name": "🐬不良帅","url":"https://notabug.org/qizhen15800/My9394/raw/master/ProfessionalEdition.m3u8"},
{"name": "🐳业余","url": "https://raw.gitmirror.com/yydfys/yydf/main/yydf/yydf.json"},
{"name":"🌼菜妮丝👙","url":"https://tvbox.cainisi.cf"},
{"name":"🌼云星👙","url":"https://itvbox.cc/tvbox/云星日记/1.m3u8"},
{"name":"🌼春风👙","url":"https://369936.xyz/web119"},
{"name":"🍀俊宇👙","url":"http://home.jundie.top:81/top98.json"},
{"name":"🍃吾爱👙","url":"http://52bsj.vip:98/wuai"},
{"name":"💦巧技👙","url":"http://pandown.pro/tvbox/tvbox.json"},
{"name":"📿神器👙","url":"https://神器每日推送.tk/pz.json"},
{"name":"🔘精选👙","url":"https://codeberg.org/jgfx/box88/raw/branch/master/jg.txt"},
{"name":"🍭甜蜜👙","url":"https://raw.iqiq.io/kebedd69/TVbox-interface/main/甜蜜.json"},
{"name":"☪夕晨👙","url":"https://calendre.top/TVBox/YXHC.json"},
{"name":"🐾喵影👙","url":"https://hk1.monika.love/tuji-2015/miao/main/TVBox/tvbox.json"},
{"name":"🐯宝真👙","url":"https://agit.ai/sejinan/app/raw/branch/box/hua"},
{"name":"🦊warnig👙","url":"https://agit.ai/wifi/ts/raw/branch/master/210.bmp"},
{"name":"🦏楞牛👙","url":"http://tv.lengniuge.ga/yingshi"},
{"name":"🦉夜猫👙","url":"https://d.looks.wang/我爱夜猫子"},
{"name":"🦉少儿频道👙","url":"https://d.looks.wang/夜猫子少儿频道"},
{"name":"🌪南风👙","url":"https://agit.ai/Yoursmile7/TVBox/raw/branch/master/XC.json"},

{"name":"🎀元兴👙","url":"https://freed.yuanhsing.cf/TVBox/meowcf.json"},
{"name":"🐕二哈👙","url":"https://codeberg.org/jgfx/2hacc/raw/branch/main/tvbox.json"},
{"name":"🌿乱世👙","url":"http://www.dmtv.ml/mao/single.json"},
{"name":"🏡潇洒👙","url":"https://la.kstore.space/download/2863/01.txt"},
{"name":"✨精简👙","url":"https://codeberg.org/jgfx/TVBox2/raw/branch/master/Json/jgpro.json"},

{"name":"🅱yoisk👙","url":"https://raw.iqiq.io/Yosakoii/Yosakoii.github.io/main/2023.json"},
{"name":"👭人人👙","url":"https://agit.ai/376242575/zzh/raw/branch/master/txt/影视.txt"}
]}
